fastml Tutorials - 01. Basic Classification
…
The dataset is characterized by:

a binary outcome variable (Class),

a small number of continuous predictors (A and B),

the absence of missing values.

This choice is intentional. The dataset is deliberately low-dimensional and clean, so that attention can remain on the evaluation procedure rather than on feature engineering, preprocessing decisions, or data-quality issues.

library(modeldata)
data(two_class_dat)
two_class_dat

# A tibble: 791 × 3
       A     B Class 
   <dbl> <dbl> <fct> 
 1  2.07 1.63  Class1
 2  2.02 1.04  Class1
 3  1.69 1.37  Class2
 4  3.43 1.98  Class2
 5  2.88 1.98  Class1
 6  3.31 2.41  Class2
 7  2.50 1.56  Class2
 8  1.98 1.55  Class2
 9  2.88 0.580 Class1
10  3.74 2.74  Class2
# ℹ 781 more rows
…
