01. Basic Classification – fastml Tutorials
…
The reported metrics summarize performance estimates obtained under 5-fold cross-validation for each model.

For both the random forest and xgboost models, these estimates are computed on assessment data that are held out from model fitting within each resampling split. They therefore differ from training-set performance and are not derived from post-hoc adjustments or recalibration.

In this example, the random forest model attains slightly higher average performance across most metrics, including accuracy, Cohen’s kappa, F1 score, and ROC AUC. However, the differences relative to xgboost are modest, and both models display a similar balance between sensitivity and specificity. These results indicate comparable overall performance with small differences in error structure rather than a clear dominance of one model over the other.

All reported values arise directly from the resampling-based evaluation procedure used by fastml, in which preprocessing, model fitting, and performance estimation are executed within a single, resampling-aware structure. The metrics therefore represent cross-validated performance summaries under the declared evaluation setup, subject to the usual variability and limitations inherent to resampling-based estimates.

Fold-Level variability

fit$resampling_results$`rand_forest (ranger)`$folds

# A tibble: 35 × 4
   fold  .metric   .estimator .estimate
   <chr> <chr>     <chr>          <dbl>
 1 1     accuracy  binary         0.850
 2 1     kap       binary         0.699
 3 1     sens      binary         0.843
 4 1     spec      binary         0.860
 5 1     precision binary         0.881
 6 1     f_meas    binary         0.861
 7 1     roc_auc   binary         0.874
 8 2     accuracy  binary         0.890
 9 2     kap       binary         0.779
10 2     sens      binary         0.871
# ℹ 25 more rows

fit$resampling_results$`xgboost (xgboost)`$folds

# A tibble: 35 × 4
   fold  .metric   .estimator .estimate
   <chr> <chr>     <chr>          <dbl>
 1 1     accuracy  binary         0.843
 2 1     kap       binary         0.685
 3 1     sens      binary         0.814
 4 1     spec      binary         0.877
 5 1     precision binary         0.891
 6 1     f_meas    binary         0.851
 7 1     roc_auc   binary         0.875
 8 2     accuracy  binary         0.866
 9 2     kap       binary         0.730
10 2     sens      binary         0.871
# ℹ 25 more rows
…
