02. Multiple Models and Fair Comparison – fastml Tutorials
…
These summaries provide point estimates under guarded cross-validation.

Fold-level variability

Fair comparison also requires inspecting variability across folds.

fit$resampling_results$`rand_forest (ranger)`$folds

# A tibble: 70 × 4
   fold  .metric   .estimator .estimate
   <chr> <chr>     <chr>          <dbl>
 1 1     accuracy  binary         0.929
 2 1     kap       binary         0.844
 3 1     sens      binary         0.944
 4 1     spec      binary         0.9  
 5 1     precision binary         0.944
 6 1     f_meas    binary         0.944
 7 1     roc_auc   binary         0.968
 8 2     accuracy  binary         0.964
 9 2     kap       binary         0.922
10 2     sens      binary         0.944
# ℹ 60 more rows
…
