04. Missing Data and Guarded Imputation – fastml Tutorials
…
These metrics are now based on:

incomplete data

fold-specific imputation

leakage-safe evaluation

Performance differences relative to complete-case analysis are expected and interpretable.

Fold-level behavior

fit$resampling_results$`rand_forest (ranger)`$folds

# A tibble: 70 × 4
   fold  .metric   .estimator .estimate
   <chr> <chr>     <chr>          <dbl>
 1 1     accuracy  binary         0.965
 2 1     kap       binary         0.925
 3 1     sens      binary         0.946
 4 1     spec      binary         1    
 5 1     precision binary         1    
 6 1     f_meas    binary         0.972
 7 1     roc_auc   binary         0.989
 8 2     accuracy  binary         0.912
 9 2     kap       binary         0.818
10 2     sens      binary         0.865
# ℹ 60 more rows
…
