06. Regression and Continuous Outcomes – fastml Tutorials
…
RMSE values cannot be compared across datasets,

small numerical differences may be practically irrelevant,

preprocessing choices directly affect metric magnitude.

This makes contextual interpretation essential.

Fold-Level Variability

As in previous tutorials, aggregated metrics hide variability.

fit$resampling_results$`linear_reg (lm)`$folds

# A tibble: 30 × 4
   fold  .metric .estimator .estimate
   <chr> <chr>   <chr>          <dbl>
 1 1     rmse    standard       4.17 
 2 1     rsq     standard       0.757
 3 1     mae     standard       3.09 
 4 2     rmse    standard       3.41 
 5 2     rsq     standard       0.822
 6 2     mae     standard       2.51 
 7 3     rmse    standard       5.96 
 8 3     rsq     standard       0.713
 9 3     mae     standard       3.66 
10 4     rmse    standard       4.59 
# ℹ 20 more rows
…
